D:\Work Project\PROJECT WOW\com.cinovasi\oee\oee-opc\src\main\java\com\cinovasi\oee\opc\config\ServiceConfiguration.java
D:\Work Project\PROJECT WOW\com.cinovasi\oee\oee-opc\src\main\java\com\cinovasi\oee\opc\Activator.java
D:\Work Project\PROJECT WOW\com.cinovasi\oee\oee-opc\src\main\java\com\cinovasi\oee\opc\service\RuntimeDataServiceImpl.java
D:\Work Project\PROJECT WOW\com.cinovasi\oee\oee-opc\src\main\java\com\cinovasi\oee\opc\service\RuntimeDataService.java
D:\Work Project\PROJECT WOW\com.cinovasi\oee\oee-opc\src\main\java\com\cinovasi\oee\opc\service\CellRuntimeManager.java
D:\Work Project\PROJECT WOW\com.cinovasi\oee\oee-opc\src\main\java\com\cinovasi\oee\opc\service\CellRuntime.java
D:\Work Project\PROJECT WOW\com.cinovasi\oee\oee-opc\src\main\java\com\cinovasi\oee\opc\service\CellRuntimeDataFacade.java
D:\Work Project\PROJECT WOW\com.cinovasi\oee\oee-opc\src\main\java\com\cinovasi\oee\opc\Worker.java
