com\cinovasi\oee\persistence\serviceimpl\WeeklyDowntimeReportViewServiceImpl.class
com\cinovasi\oee\persistence\serviceimpl\TimeToRepairServiceImpl.class
com\cinovasi\oee\persistence\serviceimpl\MonthlyOeeReportViewServiceImpl.class
com\cinovasi\oee\persistence\serviceimpl\OverallDowntimeRecordViewServiceImpl.class
com\cinovasi\oee\persistence\serviceimpl\WeeklyOeeReportViewServiceImpl.class
com\cinovasi\oee\persistence\serviceimpl\CellServiceImpl.class
com\cinovasi\oee\persistence\serviceimpl\OverallOeeReportViewServiceImpl.class
com\cinovasi\oee\persistence\serviceimpl\WeeklyLineDowntimeReportViewServiceImpl.class
com\cinovasi\oee\persistence\serviceimpl\MonthlyLineDowntimeReportViewServiceImpl.class
com\cinovasi\oee\persistence\serviceimpl\OeeCalculationContextImpl.class
com\cinovasi\oee\persistence\serviceimpl\DowntimeRecordServiceImpl.class
com\cinovasi\oee\persistence\serviceimpl\UptimeRecordServiceImpl.class
com\cinovasi\oee\persistence\serviceimpl\ReasonServiceImpl.class
com\cinovasi\oee\persistence\serviceimpl\QualityReportServiceImpl.class
com\cinovasi\oee\persistence\serviceimpl\RoleServiceImpl.class
com\cinovasi\oee\persistence\serviceimpl\DailyLineDowntimeReportViewServiceImpl.class
com\cinovasi\oee\persistence\serviceimpl\DailyCellViewServiceImpl.class
com\cinovasi\oee\persistence\serviceimpl\CellTagServiceImpl.class
com\cinovasi\oee\persistence\serviceimpl\EmployeeServiceImpl.class
com\cinovasi\oee\persistence\serviceimpl\MonthlyDowntimeReportViewServiceImpl.class
com\cinovasi\oee\persistence\serviceimpl\ShiftServiceImpl.class
com\cinovasi\oee\persistence\serviceimpl\TimeBetweenFailureServiceImpl.class
com\cinovasi\oee\persistence\serviceimpl\DailyOeeReportViewServiceImpl.class
com\cinovasi\oee\persistence\serviceimpl\ProcessDataTypeServiceImpl.class
com\cinovasi\oee\persistence\serviceimpl\DailyDowntimeReportViewServiceImpl.class
